<?xml version="1.0" standalone="no"?>
<!DOCTYPE svg PUBLIC "-//W3C//DTD SVG 20010904//EN"
 "http://www.w3.org/TR/2001/REC-SVG-20010904/DTD/svg10.dtd">
<svg version="1.0" xmlns="http://www.w3.org/2000/svg"
 width="1600.000000pt" height="1600.000000pt" viewBox="0 0 1600.000000 1600.000000"
 preserveAspectRatio="xMidYMid meet">
<metadata>
Created by potrace 1.14, written by Peter Selinger 2001-2017
</metadata>
<g transform="translate(0.000000,1600.000000) scale(0.100000,-0.100000)"
fill="#000000" stroke="none">
<path d="M0 8000 l0 -8000 1902 0 1902 0 -52 52 c-29 29 -52 56 -52 60 0 13
28 9 37 -5 4 -7 33 -34 64 -60 l56 -47 2766 0 2765 0 7 30 c4 16 10 30 15 30
5 0 11 9 15 19 7 22 58 46 76 35 8 -4 10 -3 5 4 -5 8 0 12 13 12 11 0 23 5 26
10 3 6 17 10 30 10 13 0 27 5 30 10 4 6 14 8 24 5 10 -3 26 4 38 15 21 19 22
19 20 0 -1 -10 -4 -18 -7 -18 -3 1 -14 -2 -25 -6 -81 -31 -98 -36 -102 -32 -3
3 -12 -1 -20 -9 -8 -8 -25 -15 -38 -15 -34 0 -56 -10 -48 -23 3 -6 1 -7 -5 -3
-7 4 -12 1 -12 -8 0 -8 -7 -22 -16 -30 -8 -9 -12 -20 -9 -26 4 -7 1098 -10
3301 -10 l3294 0 0 8000 0 8000 -561 0 -561 0 8 -32 c3 -18 38 -136 76 -263
39 -126 78 -259 88 -295 45 -156 55 -182 80 -209 26 -27 27 -29 11 -55 -8 -14
-24 -26 -35 -26 -10 0 -36 -5 -57 -12 -48 -14 -59 -5 -32 25 38 43 47 81 29
129 -9 24 -30 95 -47 158 -16 63 -41 153 -54 200 -12 47 -39 145 -59 219 -20
74 -42 141 -48 148 -9 11 -459 13 -2537 13 l-2526 -1 40 -37 c75 -69 247 -227
274 -250 14 -13 67 -61 116 -107 50 -45 115 -104 145 -130 30 -26 84 -76 120
-110 36 -34 90 -83 120 -110 30 -26 87 -77 125 -114 39 -36 111 -102 160 -146
50 -44 115 -103 145 -131 75 -71 110 -103 155 -141 21 -18 68 -61 104 -95 37
-35 112 -103 166 -153 54 -49 113 -103 129 -120 17 -16 58 -54 91 -83 98 -88
335 -325 331 -329 -7 -7 -116 75 -186 141 -36 34 -81 74 -100 90 -19 16 -73
64 -120 107 -99 89 -120 108 -340 306 -91 81 -203 184 -250 229 -47 45 -101
94 -120 110 -19 16 -87 79 -153 139 -65 61 -144 132 -175 159 -31 26 -91 80
-132 120 -65 61 -160 148 -285 261 -16 15 -50 45 -75 68 -25 23 -83 76 -130
117 -47 41 -98 89 -115 107 -16 18 -50 48 -73 67 l-44 36 -1468 0 -1469 0 -16
-57 c-9 -32 -36 -125 -60 -208 -24 -82 -60 -208 -80 -280 -20 -71 -54 -193
-76 -270 -21 -77 -43 -153 -48 -170 -6 -16 -44 -151 -86 -300 -114 -403 -127
-449 -133 -460 -3 -5 -7 -16 -7 -25 -3 -30 -29 -125 -38 -138 -6 -7 -7 -15 -4
-19 4 -3 -1 -12 -11 -20 -13 -10 -14 -13 -2 -11 24 4 151 -62 143 -75 -4 -6 0
-8 10 -4 11 4 44 -8 85 -30 80 -44 77 -41 68 -50 -4 -4 -11 -1 -16 7 -6 10
-10 11 -10 3 0 -7 -7 -10 -15 -7 -8 4 -12 10 -9 15 3 5 -2 6 -11 3 -8 -4 -21
-2 -28 4 -6 5 -59 35 -117 65 -104 54 -106 55 -140 40 -19 -8 -44 -16 -55 -17
-11 -2 -33 -9 -50 -15 -86 -35 -201 -71 -213 -66 -7 2 -11 1 -7 -4 3 -5 -9
-13 -27 -16 -18 -4 -37 -11 -43 -15 -5 -4 -39 -17 -75 -29 -36 -12 -78 -28
-95 -35 -16 -8 -156 -57 -310 -111 -154 -53 -294 -104 -312 -111 -17 -8 -34
-14 -38 -14 -3 0 -25 -8 -48 -19 -38 -16 -97 -38 -425 -157 -74 -26 -106 -43
-113 -58 -10 -25 -38 -153 -46 -213 -3 -24 -10 -43 -14 -43 -5 0 -8 -3 -8 -7
1 -5 1 -17 0 -28 -1 -17 -3 -18 -11 -5 -13 21 -12 110 4 205 11 67 11 85 0
113 -7 17 -17 32 -22 32 -5 0 -28 14 -52 31 -30 22 -39 34 -31 42 7 7 26 2 68
-18 37 -19 71 -29 97 -28 37 1 322 94 671 218 72 25 218 75 325 111 107 36
218 74 245 84 49 18 85 32 95 35 3 1 19 7 35 14 70 30 143 50 166 45 13 -2 18
-1 11 2 -19 9 38 33 183 80 105 33 118 40 127 66 6 15 14 28 20 28 5 0 6 9 3
20 -4 12 -2 20 5 20 8 0 10 9 6 25 -4 14 -2 25 4 25 5 0 9 8 8 18 -3 20 18 99
32 124 6 10 10 28 10 40 0 26 41 170 50 178 3 3 6 14 6 25 1 11 22 96 48 190
27 93 49 176 51 185 2 8 48 179 103 380 148 545 172 634 172 648 0 9 -678 12
-3355 12 l-3355 0 0 -8000z m13943 7458 c-3 -18 -10 -35 -15 -36 -4 -2 -6 -7
-4 -11 3 -4 0 -25 -5 -47 -5 -21 -11 -92 -14 -158 -3 -65 -9 -135 -15 -155
-12 -44 -76 -131 -97 -131 -8 0 -11 -4 -8 -10 4 -6 -10 -10 -34 -10 -27 0 -41
-5 -41 -13 0 -7 -11 -29 -25 -48 -13 -20 -21 -39 -18 -43 4 -3 1 -6 -6 -6 -17
0 -11 75 8 115 12 23 14 61 12 166 -2 121 0 141 18 176 24 48 59 73 106 77 43
3 52 12 84 84 6 12 15 22 21 22 5 0 10 11 10 23 0 24 7 37 21 37 5 0 6 -15 2
-32z m1042 -378 c0 -7 -6 -15 -12 -17 -8 -3 -13 4 -13 17 0 13 5 20 13 18 6
-3 12 -11 12 -18z m-11512 -312 c12 -9 19 -33 23 -85 7 -93 -11 -135 -70 -165
-22 -11 -48 -26 -56 -32 -9 -8 -34 -11 -63 -8 -42 3 -51 9 -68 36 -24 39 -24
104 -1 171 17 48 19 50 82 72 73 25 128 29 153 11z m-376 -867 c17 -22 15
-185 -3 -208 -12 -17 -14 -15 -19 12 -4 18 -16 35 -28 40 -12 6 -24 21 -25 35
-4 28 -29 60 -47 60 -7 0 -15 11 -17 25 -11 53 103 82 139 36z m3468 -42 c17
-11 41 -25 55 -31 l25 -12 -24 -4 c-13 -2 -27 1 -31 8 -4 6 -13 13 -21 14 -8
1 -27 9 -42 16 -20 10 -24 16 -15 22 18 11 19 10 53 -13z m165 -104 c0 -8 5
-15 11 -15 5 0 7 5 4 10 -8 13 -2 13 29 -2 20 -9 23 -14 15 -25 -9 -11 -22 -7
-70 19 -33 18 -59 36 -59 41 0 4 -4 6 -9 2 -5 -3 -13 0 -17 6 -4 8 -3 9 4 5 7
-4 12 -2 12 4 0 6 17 2 40 -10 22 -11 40 -27 40 -35z m6293 -49 c34 -3 64 -11
65 -16 2 -6 10 -10 18 -10 8 0 14 -4 14 -9 0 -4 -12 -6 -26 -3 -20 3 -26 0
-31 -17 -3 -11 -9 -21 -14 -21 -14 0 -11 -28 4 -33 6 -2 1 -2 -12 0 -13 2 -30
11 -38 18 -8 8 -21 15 -29 15 -8 0 -14 10 -14 25 0 14 5 25 12 25 6 0 4 7 -5
18 -10 10 -16 25 -16 33 1 10 3 9 6 -2 3 -12 21 -18 66 -23z m-6183 2 c0 -5 5
-6 10 -3 6 4 9 1 8 -7 -2 -7 4 -12 13 -10 9 1 16 -4 16 -13 0 -8 -3 -13 -6
-12 -41 18 -61 33 -61 46 0 14 -2 14 -10 1 -5 -8 -10 -10 -10 -4 0 6 3 13 6
17 8 8 34 -3 34 -15z m6607 -24 c17 -2 34 -11 37 -20 3 -8 10 -13 15 -9 14 8
21 -24 25 -109 2 -49 0 -73 -7 -69 -6 4 -8 -4 -5 -20 3 -15 2 -24 -2 -22 -4 2
-14 -12 -23 -31 -21 -44 -54 -56 -136 -51 -84 6 -118 22 -130 61 -13 40 -18
152 -8 162 4 4 7 17 7 29 0 20 34 53 83 81 18 10 68 10 144 -2z m-6517 -22 c0
-4 15 -12 33 -17 17 -6 32 -17 32 -25 0 -10 9 -14 23 -13 13 2 21 -1 18 -5 -3
-5 11 -14 31 -21 24 -9 32 -16 25 -23 -8 -8 -19 -5 -39 8 -15 10 -46 28 -68
39 -78 41 -85 46 -80 56 7 11 25 12 25 1z m214 -118 c9 -3 16 -12 16 -19 0 -7
17 -15 38 -19 21 -3 47 -14 58 -25 12 -10 29 -21 39 -22 10 -2 19 -11 20 -20
3 -15 0 -15 -26 -2 -16 8 -29 18 -29 23 0 5 -7 7 -15 4 -10 -4 -15 0 -15 10 0
9 -6 16 -12 14 -17 -4 -78 22 -78 33 0 5 -9 9 -20 9 -11 0 -20 5 -20 10 0 11
20 13 44 4z m230 -130 c3 -9 12 -14 20 -11 20 8 62 -23 45 -33 -12 -8 -48 6
-61 25 -4 6 -8 6 -8 2 0 -4 -6 -2 -14 5 -8 7 -12 16 -9 21 7 12 21 8 27 -9z
m5501 -34 c-3 -5 0 -7 7 -5 8 3 24 -8 37 -26 36 -49 30 -167 -13 -258 -6 -14
-13 -23 -16 -22 -3 2 -27 -9 -54 -23 -82 -44 -143 -30 -166 38 -6 18 -11 66
-12 107 -2 119 26 153 149 183 73 18 76 18 68 6z m-5370 -36 c15 -14 25 -28
22 -31 -9 -8 -57 33 -49 42 4 5 -1 5 -11 2 -11 -4 -16 -3 -12 3 10 15 20 12
50 -16z m99 -51 c19 -9 33 -20 30 -25 -3 -4 2 -9 10 -9 9 -1 21 -3 26 -4 6 -1
14 -3 18 -4 10 -1 12 -31 2 -31 -4 0 -13 7 -20 15 -7 9 -15 13 -18 11 -7 -7
-62 23 -62 33 0 5 -12 14 -27 19 -17 6 -21 11 -11 11 10 1 33 -6 52 -16z m160
-95 c-4 -6 2 -8 17 -3 17 4 20 3 10 -3 -17 -12 -1 -23 27 -17 15 2 19 0 15
-11 -3 -10 0 -12 10 -8 9 3 24 -3 35 -14 11 -11 24 -17 28 -14 4 4 4 2 0 -5
-7 -13 -36 -6 -36 9 0 5 -3 7 -7 5 -14 -8 -146 67 -149 84 -2 15 1 15 27 2 16
-8 26 -19 23 -25z m182 -93 c4 -8 9 -13 13 -11 11 7 36 -12 28 -21 -5 -4 -12
-1 -17 7 -6 8 -10 11 -10 6 0 -5 -7 -3 -15 4 -8 7 -15 9 -15 6 0 -4 -5 -4 -10
-1 -12 7 -4 25 11 25 5 0 12 -7 15 -15z m111 -59 c24 -10 40 -22 37 -27 -3 -5
3 -9 12 -9 18 0 124 -49 124 -57 0 -3 -7 -2 -16 1 -8 3 -12 2 -9 -4 12 -19
-12 -10 -39 15 -14 13 -32 22 -39 20 -6 -3 -24 6 -39 20 -15 14 -33 25 -40 25
-15 1 -48 24 -48 34 0 4 3 6 8 4 4 -2 26 -12 49 -22z m-3802 -5 c3 -5 1 -12
-5 -16 -5 -3 -10 1 -10 9 0 18 6 21 15 7z m4015 -112 c0 -5 7 -9 16 -9 8 0 12
-5 8 -11 -4 -8 0 -9 15 -4 16 5 21 2 21 -10 0 -12 5 -15 16 -11 9 4 24 0 33
-8 9 -8 45 -29 81 -47 36 -18 72 -41 81 -51 9 -9 19 -15 22 -12 9 9 48 -16 42
-27 -4 -5 -11 -9 -16 -9 -6 0 -7 5 -3 12 5 7 2 9 -8 5 -9 -3 -25 3 -36 13 -11
10 -22 16 -25 14 -9 -9 -68 26 -62 36 4 6 -3 10 -14 10 -11 0 -27 7 -35 16 -9
8 -16 12 -16 7 0 -4 -6 -1 -13 7 -7 8 -16 15 -22 15 -5 0 -39 15 -74 34 -44
23 -60 35 -51 41 15 9 40 2 40 -11z m533 -287 c9 -8 17 -12 17 -7 0 4 7 2 15
-5 8 -7 15 -18 15 -25 0 -8 -22 -1 -59 19 -33 17 -59 35 -58 40 1 4 -4 11 -12
14 -9 3 -11 0 -6 -8 6 -9 3 -9 -14 0 -12 6 -20 14 -17 18 2 4 -7 12 -20 19
-13 6 -24 7 -24 2 0 -4 -8 -5 -17 -2 -15 6 -14 7 3 13 19 7 141 -46 177 -78z
m2786 -61 c-8 -17 -17 -31 -21 -31 -4 0 -24 -12 -45 -26 -21 -14 -180 -96
-353 -181 -173 -86 -387 -192 -475 -236 -88 -44 -231 -115 -317 -158 -103 -51
-158 -84 -160 -96 -2 -10 2 -40 8 -68 7 -27 19 -84 29 -125 9 -41 19 -83 21
-92 5 -17 74 -18 1272 -18 1392 -1 1451 -3 1722 -59 328 -69 565 -157 815
-300 48 -28 90 -51 92 -51 2 0 48 -29 101 -64 378 -251 763 -659 1002 -1063
30 -50 59 -89 64 -86 5 4 6 2 3 -4 -3 -5 1 -23 10 -39 44 -83 115 -227 143
-289 36 -79 150 -377 156 -408 2 -11 12 -48 23 -81 56 -171 125 -525 148 -761
21 -209 23 -615 4 -810 -36 -391 -135 -801 -279 -1155 -98 -242 -275 -572
-394 -736 -24 -32 -51 -70 -59 -84 -30 -46 -225 -274 -305 -356 -159 -164
-303 -283 -499 -416 -164 -111 -281 -175 -460 -253 -278 -121 -480 -176 -765
-209 -121 -14 -795 -16 -6472 -16 l-6338 0 0 3620 0 3620 4990 0 c3670 0 4990
3 4990 11 0 13 -60 302 -63 304 -1 1 -33 19 -72 40 -38 21 -80 43 -92 50 -13
7 -19 16 -15 20 4 5 2 5 -4 2 -11 -6 -139 58 -174 87 -8 7 -34 20 -57 31 -23
10 -40 22 -37 26 3 5 -1 6 -9 3 -8 -3 -18 -1 -22 5 -13 23 25 21 62 -2 21 -13
48 -27 61 -31 13 -4 21 -13 19 -19 -3 -7 6 -13 19 -13 14 -1 31 -7 38 -13 8
-6 69 -39 137 -73 68 -33 131 -67 139 -74 14 -11 40 -1 180 70 91 45 208 105
260 133 52 28 169 89 260 135 91 47 257 133 370 192 113 58 239 123 280 145
41 21 77 37 79 35 2 -1 -3 -17 -10 -33z m-2683 4 c18 -14 37 -25 43 -25 6 0
11 -6 11 -14 0 -12 -4 -12 -30 1 -17 8 -27 19 -23 25 4 7 1 9 -9 6 -8 -4 -20
2 -26 13 -16 26 -5 24 34 -6z m94 -62 c0 -20 -24 -11 -28 10 -2 12 1 15 12 11
9 -3 16 -13 16 -21z m70 -27 c25 -14 36 -26 28 -28 -20 -7 -58 13 -59 31 0 11
-2 12 -6 3 -2 -6 -9 -10 -14 -6 -8 5 -4 24 6 24 1 0 22 -11 45 -24z m61 -35
c-16 -10 -4 -18 26 -15 12 0 20 -2 18 -6 -3 -4 10 -10 28 -14 25 -5 29 -9 17
-16 -13 -9 -13 -10 0 -11 42 -5 80 -20 74 -30 -3 -5 1 -10 8 -10 30 -3 36 -5
71 -24 20 -11 37 -23 37 -27 0 -5 7 -8 15 -8 8 0 15 -4 15 -9 0 -5 6 -8 13 -8
14 2 177 -80 177 -89 0 -3 -10 -2 -21 1 -15 5 -19 4 -14 -5 4 -7 -6 -5 -24 5
-18 9 -29 20 -25 26 3 6 0 9 -7 8 -24 -3 -79 22 -72 34 3 6 1 7 -6 3 -6 -4
-24 2 -39 13 -16 11 -73 43 -128 71 -54 29 -106 58 -115 66 -8 8 -23 14 -31
14 -9 0 -21 6 -27 13 -11 14 -5 27 13 27 6 0 5 -4 -3 -9z m519 -281 c0 -5 10
-10 23 -11 12 0 16 -3 9 -6 -6 -2 -10 -9 -6 -14 3 -5 -10 -1 -29 8 -22 11 -30
21 -23 25 16 11 26 10 26 -2z m-4441 -8803 c6 -17 40 -180 77 -362 36 -181 85
-424 108 -538 l42 -208 65 -36 c35 -20 91 -51 124 -70 33 -19 84 -46 113 -60
48 -25 74 -51 35 -36 -11 4 -14 3 -9 -6 6 -10 3 -9 -13 0 -12 8 -16 16 -10 20
13 8 -14 19 -45 19 -12 0 -36 13 -53 29 -18 16 -34 27 -37 24 -3 -3 -45 15
-94 41 l-89 46 -74 -39 c-41 -20 -173 -88 -294 -151 -121 -62 -247 -127 -280
-145 -56 -31 -124 -66 -534 -277 -84 -43 -155 -77 -157 -75 -2 1 -1 13 3 25 3
14 33 37 82 65 102 58 1194 602 1204 599 4 -1 7 3 7 9 0 6 6 9 14 6 18 -7 18
-8 -49 283 -14 63 -30 135 -35 160 -10 53 -74 340 -95 425 -47 196 -55 244
-44 273 11 29 24 22 38 -21z m632 -1339 c12 -13 18 -17 14 -9 -5 9 -3 12 6 9
8 -3 14 -10 14 -15 0 -6 4 -15 9 -20 5 -5 6 -3 2 5 -4 6 -2 12 3 12 6 0 11 -7
11 -16 0 -8 4 -13 9 -10 5 3 11 -1 15 -9 4 -12 -4 -10 -37 6 -23 12 -45 26
-48 31 -3 5 -9 9 -13 9 -18 -3 -23 0 -23 14 0 21 13 19 38 -7z m144 -74 c15
-14 24 -28 20 -32 -3 -4 -14 4 -24 17 -10 13 -23 21 -30 17 -6 -4 -11 -1 -11
8 0 23 13 20 45 -10z m67 -46 c-9 -9 -15 -9 -24 0 -9 9 -7 12 12 12 19 0 21
-3 12 -12z m43 -27 c-3 -6 -11 -8 -17 -5 -6 4 -5 9 3 15 16 10 23 4 14 -10z
m47 -9 c2 -4 39 -25 83 -47 195 -99 285 -150 285 -164 0 -10 -6 -8 -21 8 -17
18 -23 20 -30 9 -8 -12 -13 -4 -10 16 1 5 -6 5 -16 2 -11 -5 -23 1 -36 16 -10
13 -16 17 -12 11 4 -9 1 -11 -9 -7 -9 3 -13 10 -10 16 3 5 0 8 -7 7 -8 -2 -25
1 -38 5 -18 6 -21 10 -10 17 10 6 6 9 -14 9 -19 0 -26 4 -21 12 5 8 2 9 -10 5
-10 -4 -15 -3 -11 3 4 6 -5 10 -20 10 -17 0 -24 4 -19 12 5 8 2 9 -10 5 -10
-4 -19 -1 -23 9 -3 8 -11 13 -19 10 -7 -3 -18 2 -24 10 -7 8 -19 14 -27 14 -8
0 -11 5 -8 10 7 12 32 13 37 2z m412 -223 c14 -7 23 -16 20 -20 -3 -5 2 -9 10
-9 22 0 86 -32 86 -43 0 -5 -7 -4 -15 3 -12 10 -15 10 -15 -1 0 -7 -7 -3 -16
9 -8 12 -21 21 -27 20 -16 -3 -77 30 -77 42 0 13 4 12 34 -1z m161 -99 c3 -5
13 -6 22 -3 11 4 14 3 9 -5 -9 -14 -36 -16 -36 -3 0 5 -10 12 -22 14 -23 4
-23 4 -1 6 12 0 24 -3 28 -9z m75 -37 c0 -8 5 -11 13 -7 9 5 9 4 1 -5 -8 -9
-18 -8 -40 4 -20 10 -24 15 -11 15 10 0 15 4 12 10 -3 6 1 7 9 4 9 -3 16 -13
16 -21z m43 -30 c-6 -16 -5 -16 10 -4 11 9 17 10 17 2 0 -6 7 -11 16 -11 8 0
12 -4 9 -10 -4 -6 5 -10 20 -10 14 0 28 -7 31 -15 4 -8 10 -13 14 -10 4 3 10
-2 13 -10 5 -12 2 -12 -18 -3 -14 6 -25 14 -25 17 0 4 -10 8 -22 8 -13 1 -28
10 -35 19 -6 9 -16 13 -21 10 -5 -3 -15 0 -21 8 -11 13 -10 16 16 25 1 1 -1
-7 -4 -16z m167 -77 c0 -3 -4 -8 -10 -11 -5 -3 -10 -1 -10 4 0 6 5 11 10 11 6
0 10 -2 10 -4z m25 -16 c3 -5 1 -10 -4 -10 -6 0 -11 5 -11 10 0 6 2 10 4 10 3
0 8 -4 11 -10z m51 -37 c-8 -8 -36 5 -36 17 0 7 6 7 21 0 11 -7 18 -14 15 -17z
m48 -33 c-6 -6 -15 -5 -24 1 -13 9 -12 10 3 5 9 -3 17 0 17 6 0 6 3 8 7 5 4
-4 2 -12 -3 -17z m69 -19 c25 -16 26 -19 10 -25 -12 -5 -23 -1 -34 13 -9 11
-20 17 -24 13 -5 -4 -5 -1 -1 6 10 16 16 15 49 -7z m51 -43 c-5 -7 0 -9 13 -6
11 3 30 0 42 -7 20 -10 21 -13 7 -24 -10 -8 -16 -9 -16 -3 0 6 -16 16 -35 22
-19 6 -37 16 -40 21 -3 5 2 6 11 2 13 -5 15 -3 9 7 -5 9 -4 11 4 6 6 -4 8 -12
5 -18z m139 -57 c4 -1 7 -9 7 -18 -1 -16 -2 -16 -11 1 -9 15 -13 16 -20 5 -7
-11 -9 -11 -9 -1 0 7 -5 10 -12 6 -6 -4 -8 -3 -5 4 4 5 15 9 25 7 9 -2 20 -4
25 -4z m46 -30 c7 -5 9 -11 5 -14 -5 -3 -15 1 -22 9 -14 16 -5 18 17 5z m36
-21 c3 -5 -1 -10 -10 -10 -9 0 -13 5 -10 10 3 6 8 10 10 10 2 0 7 -4 10 -10z
m52 -29 c12 -11 24 -17 29 -13 4 4 4 1 0 -6 -5 -9 -3 -12 5 -11 21 4 60 -11
54 -21 -3 -5 4 -14 15 -20 15 -8 20 -8 20 1 0 7 3 10 6 6 3 -3 3 -10 -1 -16
-7 -12 -28 -3 -60 26 -11 10 -24 18 -30 18 -19 1 -64 28 -69 41 -8 20 7 17 31
-5z m-4598 -50 c23 -23 46 -147 36 -199 -8 -44 -60 -97 -105 -106 -85 -16
-155 4 -166 49 -8 31 2 103 22 171 17 55 25 61 109 87 66 21 81 21 104 -2z
m8451 -46 c0 -2 -7 -2 -15 1 -8 4 -15 1 -15 -5 0 -6 5 -11 10 -11 12 0 8 -56
-11 -166 -9 -52 -8 -67 5 -93 9 -17 22 -31 29 -31 20 -1 54 -34 54 -53 0 -21
2 -22 -57 8 -27 14 -62 25 -78 25 -30 0 -129 -31 -337 -105 -284 -101 -516
-176 -527 -169 -7 4 -8 3 -4 -4 5 -8 -1 -12 -17 -12 -13 0 -27 -3 -30 -6 -10
-11 -110 -49 -163 -64 -27 -7 -55 -17 -61 -23 -7 -5 -20 -7 -28 -3 -8 3 -15 0
-15 -5 0 -6 -9 -9 -20 -6 -11 3 -18 1 -14 -4 3 -5 0 -9 -6 -9 -7 0 -26 -6 -43
-14 -18 -8 -59 -24 -92 -35 -49 -17 -62 -18 -73 -8 -10 11 -6 15 23 24 19 6
35 7 35 2 0 -5 5 -9 11 -9 5 0 7 5 4 10 -6 10 28 28 84 45 16 5 21 4 17 -4 -4
-6 -2 -11 3 -11 6 0 11 6 11 13 1 16 173 72 190 62 8 -5 11 -4 7 2 -8 12 76
55 110 57 13 0 23 3 23 6 0 3 21 12 47 19 25 8 58 20 73 27 14 8 35 15 46 17
10 2 29 8 41 15 12 7 30 13 40 15 10 1 23 5 28 8 6 4 28 12 50 19 22 7 132 47
245 90 113 43 226 86 252 95 26 10 53 25 61 34 8 9 24 70 36 136 28 154 26
148 51 135 11 -6 20 -13 20 -15z m-3664 -14 c0 -16 -4 -17 -24 -8 -22 10 -22
12 -5 18 27 11 29 11 29 -10z m64 -24 c0 4 6 -2 14 -13 8 -10 13 -20 12 -21
-7 -7 -71 34 -74 46 -2 11 3 10 23 -3 14 -9 25 -13 25 -9z m69 -51 c0 -7 -2
-6 -6 2 -2 6 -9 10 -14 6 -5 -3 -9 2 -9 12 0 13 3 14 15 4 8 -7 15 -18 14 -24z
m36 -16 c-3 -5 -1 -10 6 -10 7 0 10 -2 7 -5 -7 -8 -38 5 -38 16 0 5 7 9 16 9
8 0 12 -4 9 -10z m69 -29 c10 -15 -18 -19 -32 -5 -11 12 -9 14 7 14 11 0 22
-4 25 -9z m47 -32 c9 -11 20 -20 23 -20 18 2 23 0 23 -13 0 -10 -6 -10 -29 3
-15 9 -28 19 -28 24 0 4 -7 7 -16 7 -8 0 -12 5 -9 10 9 14 15 13 36 -11z m119
-60 c0 -5 7 -9 15 -9 9 0 18 -7 21 -15 4 -8 11 -12 17 -8 6 3 7 1 3 -5 -7 -12
-36 -5 -51 13 -5 6 -18 14 -27 18 -25 9 -23 26 2 20 11 -3 20 -9 20 -14z
m-5749 -56 c27 -27 37 -138 20 -225 0 -3 -13 -20 -27 -37 -25 -30 -28 -31
-110 -31 -78 0 -87 2 -111 26 -25 25 -26 29 -19 111 8 107 25 150 63 159 15 3
33 7 38 10 20 7 135 -2 146 -13z m5843 8 c3 -5 -1 -11 -9 -15 -15 -6 -29 7
-18 18 9 9 21 8 27 -3z m61 -32 c3 -4 1 -10 -5 -14 -5 -3 -10 -1 -10 5 0 7 -6
10 -13 7 -8 -3 -14 1 -14 8 0 13 33 9 42 -6z m30 -19 c-3 -5 -12 -10 -18 -10
-7 0 -6 4 3 10 19 12 23 12 15 0z m49 -31 c9 -13 19 -18 28 -13 7 4 10 4 6 -1
-4 -4 3 -16 15 -26 19 -17 16 -16 -15 2 -21 11 -38 26 -38 31 0 6 -7 8 -15 5
-15 -7 -29 6 -18 17 11 11 21 7 37 -15z m116 -64 c0 6 4 4 9 -4 5 -8 17 -16
26 -17 23 -3 32 -14 11 -14 -22 0 -66 29 -66 44 0 6 5 4 10 -4 5 -8 10 -10 10
-5z m74 -46 c-4 -7 2 -9 17 -7 16 2 23 -1 21 -11 -2 -8 3 -11 11 -8 7 3 14 -1
14 -8 0 -9 -11 -8 -39 7 -21 11 -35 24 -32 29 3 5 7 9 10 9 3 0 2 -5 -2 -11z
m120 -48 c7 -11 -22 -23 -36 -15 -6 4 -5 10 3 15 18 11 26 11 33 0z m45 -33
c12 -3 12 -6 -2 -11 -9 -3 -17 -2 -17 3 0 6 -8 10 -17 10 -15 0 -16 2 -3 10 8
5 17 5 20 1 3 -4 12 -10 19 -13z m61 -33 c0 -9 6 -12 15 -9 10 4 15 0 14 -12
0 -11 -3 -14 -6 -6 -2 6 -9 10 -13 7 -5 -3 -14 4 -20 15 -7 13 -7 20 0 20 5 0
10 -7 10 -15z m3829 -126 c9 -20 24 -44 34 -54 17 -16 17 -18 1 -36 -18 -20
-69 -25 -94 -9 -16 10 -28 146 -15 177 6 16 10 14 32 -12 13 -16 32 -46 42
-66z m-3729 70 c0 -5 5 -7 10 -4 6 3 10 1 10 -4 0 -6 8 -11 18 -12 11 0 12 -2
4 -6 -12 -5 -82 23 -82 32 0 3 9 5 20 5 11 0 20 -5 20 -11z m105 -56 c17 -5
30 -16 30 -23 0 -7 6 -15 14 -18 8 -3 11 0 7 7 -4 6 13 1 38 -11 25 -12 46
-26 46 -30 0 -4 8 -8 18 -8 26 -1 56 -26 41 -36 -7 -4 -17 0 -25 10 -7 10 -16
17 -21 16 -20 -3 -44 10 -38 19 4 7 0 8 -11 4 -10 -4 -20 0 -26 11 -5 9 -13
14 -19 11 -11 -8 -51 19 -42 28 3 4 1 8 -5 8 -7 1 -15 3 -19 4 -5 2 -19 6 -31
10 -17 6 -20 10 -11 16 8 4 16 4 19 0 3 -4 19 -12 35 -18z m889 -112 c4 -5 -4
-7 -16 -4 -19 4 -21 3 -8 -7 13 -10 12 -11 -3 -6 -10 3 -24 6 -30 7 -14 1 22
17 40 18 6 1 14 -3 17 -8z m-574 -54 c8 -3 -1 -4 -20 -3 -22 1 -34 7 -32 15 1
6 -3 11 -10 10 -20 -3 -49 12 -42 22 3 6 24 -1 47 -14 23 -13 49 -27 57 -30z
m457 24 c2 -18 -24 -37 -35 -26 -3 3 0 5 7 5 7 0 11 6 8 14 -3 8 -1 17 6 20 7
2 12 5 12 5 1 1 1 -8 2 -18z m53 9 c12 -8 9 -10 -13 -10 -16 0 -26 4 -22 10 8
12 16 12 35 0z m-6125 -50 c3 -6 -1 -7 -9 -4 -18 7 -21 14 -7 14 6 0 13 -4 16
-10z m5645 -11 c0 -6 7 -9 15 -6 8 4 17 2 20 -3 10 -16 -32 -11 -45 5 -9 10
-9 15 -1 15 6 0 11 -5 11 -11z m-5615 -9 c3 -5 1 -10 -4 -10 -6 0 -11 5 -11
10 0 6 2 10 4 10 3 0 8 -4 11 -10z m5709 -40 c10 0 14 -5 11 -11 -8 -13 -47
11 -53 32 -2 9 2 8 11 -3 8 -10 22 -18 31 -18z"/>
<path d="M8751 12656 c2 -2 15 -9 29 -15 24 -11 24 -11 6 3 -16 13 -49 24 -35
12z"/>
<path d="M8360 10764 l0 -226 -41 37 c-56 51 -102 68 -180 69 -52 0 -77 -6
-122 -27 -69 -34 -110 -80 -155 -174 -30 -64 -35 -85 -39 -175 -6 -115 8 -192
51 -276 91 -181 311 -229 449 -100 l37 35 0 -38 0 -39 55 0 55 0 0 570 0 570
-55 0 -55 0 0 -226z m-95 -279 c25 -14 56 -42 70 -63 24 -35 25 -43 25 -190
l0 -153 -30 -44 c-57 -82 -169 -116 -255 -76 -153 71 -192 345 -69 490 63 75
168 90 259 36z"/>
<path d="M2748 10418 c-3 -524 -4 -566 -22 -606 -24 -56 -59 -82 -107 -82
l-39 0 0 -60 0 -60 58 0 c79 0 128 30 165 97 53 98 57 153 57 739 l0 534 -55
0 -54 0 -3 -562z"/>
<path d="M6245 10968 c-20 -52 -75 -221 -75 -229 0 -5 20 -9 44 -9 l43 0 77
119 c42 65 76 121 76 125 0 12 -160 6 -165 -6z"/>
<path d="M3287 10640 c-140 -35 -241 -161 -267 -333 -39 -262 115 -487 332
-487 131 0 249 84 303 216 37 91 46 234 20 330 -31 114 -111 216 -200 255 -50
22 -138 31 -188 19z m123 -130 c123 -34 201 -219 156 -372 -45 -155 -165 -232
-284 -182 -89 37 -142 125 -150 249 -6 109 14 177 70 240 61 65 129 87 208 65z"/>
<path d="M5445 10641 c-45 -11 -76 -29 -117 -69 l-38 -36 0 42 0 42 -55 0 -55
0 0 -385 0 -385 55 0 55 0 0 269 0 269 33 44 c80 106 207 114 279 17 29 -38
38 -127 38 -371 l0 -228 53 0 52 0 -5 297 c-5 295 -5 299 -31 353 -34 72 -81
117 -143 135 -53 16 -74 17 -121 6z"/>
<path d="M6138 10637 c-135 -38 -224 -176 -235 -362 -12 -200 58 -352 193
-420 134 -68 303 -33 390 82 l26 35 -37 38 -38 39 -42 -43 c-50 -52 -98 -70
-175 -64 -43 3 -69 12 -98 32 -51 35 -98 122 -107 199 l-7 57 240 0 240 0 7
40 c15 89 -21 219 -80 287 -64 75 -178 107 -277 80z m165 -132 c40 -28 71 -80
82 -138 l7 -37 -187 0 -187 0 6 33 c10 51 58 120 101 144 57 32 129 31 178 -2z"/>
<path d="M6896 10639 c-134 -33 -232 -181 -243 -369 -9 -147 33 -275 121 -362
118 -119 317 -118 438 3 26 26 48 52 48 56 0 5 -17 26 -38 46 l-39 38 -27 -36
c-43 -55 -96 -78 -176 -73 -54 3 -76 9 -109 32 -52 36 -100 129 -103 201 l-3
50 237 3 238 2 6 26 c4 15 4 57 1 95 -10 124 -80 236 -169 273 -48 20 -133 27
-182 15z m144 -124 c49 -25 100 -110 100 -166 0 -18 -12 -19 -185 -19 -102 0
-185 4 -185 9 0 20 31 94 51 122 44 62 152 88 219 54z"/>
<path d="M4865 10611 c-23 -10 -53 -32 -67 -50 l-27 -31 -3 42 -3 43 -52 3
-53 3 0 -385 0 -386 55 0 55 0 0 266 c0 299 0 301 74 352 32 22 50 27 98 27
l58 0 0 68 0 67 -47 0 c-27 0 -66 -9 -88 -19z"/>
<path d="M3877 10613 c-10 -9 -8 -437 2 -517 6 -41 22 -93 40 -131 49 -99 122
-144 236 -144 114 -1 200 62 247 179 21 51 23 74 26 338 l3 283 -53 -3 -53 -3
-5 -270 c-6 -297 -10 -318 -70 -369 -39 -32 -69 -40 -122 -33 -55 7 -88 33
-118 93 -25 48 -25 54 -28 317 l-4 267 -47 0 c-26 0 -51 -3 -54 -7z"/>
<path d="M8642 10348 c5 -305 12 -345 74 -430 71 -96 210 -128 322 -72 61 30
96 68 131 144 26 55 26 57 29 343 l4 288 -54 -3 -53 -3 -5 -270 c-6 -297 -9
-317 -69 -368 -83 -69 -203 -38 -247 65 -16 37 -19 78 -22 311 l-3 267 -56 0
-55 0 4 -272z"/>
<path d="M2770 9303 c-171 -18 -411 -112 -542 -211 -257 -194 -426 -504 -489
-897 -20 -121 -17 -487 5 -600 76 -399 233 -675 499 -876 132 -100 280 -160
472 -193 81 -14 620 -16 5133 -16 4995 0 5045 0 5141 20 243 49 442 165 627
362 59 63 174 228 211 303 66 131 119 299 148 464 18 99 20 369 4 474 -48 322
-177 592 -387 809 -58 60 -133 128 -167 152 -106 76 -251 143 -410 190 -70 20
-82 20 -2272 23 l-2203 3 0 -1105 0 -1105 -95 0 -95 0 0 46 0 47 -44 -41 c-86
-79 -188 -110 -304 -92 -186 30 -316 169 -373 400 -29 116 -23 301 14 405 54
155 121 247 218 299 104 57 205 69 308 37 58 -18 164 -87 175 -114 2 -7 5 266
5 606 l1 617 -2772 -2 c-1525 0 -2789 -3 -2808 -5z m386 -608 c92 -70 100
-222 17 -307 -78 -80 -194 -53 -244 57 -46 101 4 238 101 278 30 12 91 -2 126
-28z m394 -297 l0 -311 45 42 c24 23 71 53 102 68 49 23 71 27 148 27 81 -1
97 -4 160 -34 204 -98 315 -347 285 -639 -28 -268 -172 -452 -384 -492 -116
-21 -222 10 -312 93 l-44 41 0 -47 0 -46 -95 0 -95 0 0 805 0 804 88 3 c48 2
90 2 95 0 4 -2 7 -143 7 -314z m8757 293 c48 -35 73 -91 73 -164 -1 -177 -181
-252 -277 -115 -25 37 -28 50 -28 118 0 68 3 81 28 117 53 77 135 94 204 44z
m-9537 -786 l0 -805 -92 0 -93 0 2 798 c2 438 3 800 3 805 0 4 41 7 90 7 l90
0 0 -805z m4623 718 c-25 -43 -53 -91 -62 -108 -9 -16 -34 -60 -56 -97 l-39
-68 -83 0 c-46 0 -83 1 -83 3 0 1 14 52 30 112 17 61 37 138 46 173 l16 62
139 0 138 0 -46 -77z m5660 49 c26 -11 47 -26 47 -32 0 -11 -67 -170 -75 -178
-1 -2 -18 6 -36 17 -22 14 -51 21 -83 21 -43 0 -53 -4 -86 -38 -46 -46 -60
-92 -60 -199 l0 -83 145 0 145 0 0 -105 0 -105 -145 0 -145 0 0 -435 0 -435
-90 0 -90 0 0 435 0 434 -82 3 -83 3 -3 103 -3 102 85 0 84 0 4 123 c6 176 40
259 140 340 56 45 102 58 198 54 59 -2 99 -10 133 -25z m-1333 -357 l0 -135
145 0 145 0 0 -105 0 -105 -146 0 -145 0 3 -292 c3 -321 6 -334 65 -374 31
-20 131 -26 191 -11 l32 9 0 -100 0 -99 -39 -11 c-21 -7 -74 -12 -118 -12
-129 0 -208 38 -259 126 -48 81 -54 133 -54 462 l0 302 -85 0 -85 0 0 105 0
104 83 3 82 3 3 133 3 132 89 0 90 0 0 -135z m-6178 -118 c125 -56 195 -143
237 -297 21 -74 28 -194 15 -259 l-6 -31 -326 0 -325 0 6 -52 c12 -121 71
-219 161 -266 l51 -27 388 -3 c267 -2 387 -6 387 -14 0 -20 -62 -120 -100
-159 l-37 -39 -294 0 c-327 0 -390 8 -487 60 -92 49 -147 108 -200 215 -51
103 -66 175 -66 320 0 137 13 204 60 313 59 136 170 228 319 266 44 11 164 -4
217 -27z m1739 -6 c170 -65 276 -276 254 -507 l-7 -74 -329 0 -329 0 6 -42
c28 -211 139 -318 316 -306 79 5 131 30 189 90 l45 47 64 -64 63 -64 -26 -39
c-81 -123 -257 -194 -421 -172 -201 28 -354 185 -402 412 -22 101 -14 320 14
399 69 194 160 291 315 334 69 19 177 13 248 -14z m2894 14 c32 -9 81 -28 108
-42 51 -28 157 -134 157 -158 0 -7 -30 -41 -67 -75 l-68 -61 -35 40 c-19 21
-55 52 -79 68 -39 24 -54 28 -120 28 -67 0 -82 -4 -126 -31 -164 -101 -215
-369 -107 -567 47 -88 131 -137 234 -137 87 0 161 38 210 109 15 21 18 22 38
8 34 -23 120 -108 120 -117 0 -5 -15 -28 -33 -52 -91 -119 -251 -182 -405
-158 -237 37 -396 246 -409 540 -6 143 11 234 67 346 50 103 112 171 191 214
113 60 212 74 324 45z m850 0 c112 -29 187 -98 237 -218 22 -50 23 -65 26
-469 l3 -418 -90 0 -91 0 0 50 c0 53 -8 62 -27 31 -17 -27 -95 -79 -145 -97
-24 -8 -75 -15 -115 -15 -124 0 -216 57 -264 166 -18 40 -23 68 -23 140 0 110
23 164 96 230 57 51 118 76 260 106 57 12 128 26 158 33 l55 12 3 41 c7 102
-50 190 -143 219 -49 16 -56 16 -111 -1 -46 -14 -71 -30 -112 -72 -53 -54 -54
-54 -75 -37 -56 46 -107 99 -107 111 0 21 112 128 158 152 97 50 204 62 307
36z m-6101 -11 c13 -5 16 -25 16 -118 l0 -113 -53 10 c-94 17 -174 -18 -240
-104 l-27 -36 0 -366 0 -367 -97 0 -98 0 3 540 2 540 95 0 95 0 -3 -50 c-1
-27 -1 -50 1 -50 1 0 19 16 39 36 52 52 126 84 195 84 31 0 63 -3 72 -6z
m-1764 -555 l0 -539 -95 0 -95 0 0 540 0 539 88 3 c48 2 90 2 95 0 4 -2 7
-246 7 -543z m5690 224 c0 -406 11 -473 87 -545 38 -36 73 -48 140 -48 69 0
131 33 162 86 46 77 51 126 51 486 l0 338 90 0 90 0 0 -362 c0 -399 -4 -436
-61 -556 -72 -150 -227 -228 -399 -201 -158 24 -257 118 -316 299 -15 47 -18
106 -22 423 -2 202 -1 374 2 382 4 12 25 15 91 15 l85 0 0 -317z m3470 -223
l0 -540 -90 0 -90 0 0 540 0 540 90 0 90 0 0 -540z"/>
<path d="M3747 7996 c-61 -17 -122 -59 -164 -115 l-33 -43 0 -194 c0 -222 1
-226 79 -296 109 -98 259 -102 359 -9 83 78 126 233 104 378 -14 90 -41 151
-91 206 -65 72 -160 99 -254 73z"/>
<path d="M5295 8011 c-66 -30 -125 -110 -141 -189 l-6 -32 231 0 232 0 -5 35
c-13 81 -62 152 -127 185 -49 25 -131 26 -184 1z"/>
<path d="M7085 8031 c-98 -25 -170 -106 -199 -223 l-6 -28 235 0 235 0 0 33
c0 39 -39 122 -74 159 -50 52 -127 76 -191 59z"/>
<path d="M10963 7569 c-72 -15 -145 -35 -161 -43 -62 -32 -97 -105 -82 -171
17 -73 75 -110 161 -102 67 6 114 27 159 70 60 58 70 83 70 179 0 48 -3 89 -7
91 -5 2 -67 -9 -140 -24z"/>
<path d="M8000 7997 c-19 -6 -60 -36 -91 -67 -75 -75 -104 -154 -103 -290 0
-160 51 -274 149 -335 39 -24 61 -30 120 -33 86 -5 139 15 204 74 70 62 71 68
71 299 l0 207 -63 63 c-50 50 -75 67 -117 79 -61 18 -119 19 -170 3z"/>
<path d="M9967 5829 c-21 -29 -8 -63 26 -67 21 -3 28 2 33 24 13 51 -31 83
-59 43z"/>
<path d="M10230 5435 l0 -415 25 0 25 0 0 415 0 415 -25 0 -25 0 0 -415z"/>
<path d="M5843 5785 c-58 -35 -84 -82 -91 -161 -9 -114 35 -183 163 -255 112
-63 147 -118 125 -198 -27 -102 -157 -109 -237 -13 l-23 27 -31 -31 -30 -31
26 -32 c48 -57 111 -86 185 -86 81 0 128 26 168 93 22 39 27 59 27 117 0 94
-31 149 -116 202 -143 90 -179 129 -179 193 0 116 119 150 204 60 l39 -42 28
28 28 29 -20 31 c-55 87 -182 120 -266 69z"/>
<path d="M10845 5787 c-36 -21 -105 -97 -105 -117 0 -5 9 -14 20 -20 17 -9 23
-5 45 28 32 49 75 74 131 75 100 1 156 -97 124 -214 -15 -53 -94 -164 -280
-396 -36 -44 -50 -70 -50 -92 l0 -31 205 0 205 0 0 30 0 30 -171 0 -170 0 30
43 c17 23 74 96 126 162 52 66 109 146 126 179 71 132 39 288 -68 332 -49 21
-122 17 -168 -9z"/>
<path d="M11425 5794 c-46 -24 -72 -52 -98 -108 -40 -85 -52 -151 -51 -291 0
-194 37 -298 130 -364 52 -37 135 -36 192 1 88 59 127 172 127 373 0 121 -3
150 -24 214 -42 127 -109 191 -201 191 -25 0 -58 -7 -75 -16z m142 -63 c99
-61 143 -342 82 -525 -25 -75 -43 -101 -86 -127 -72 -45 -153 -7 -197 90 -76
169 -47 456 55 552 38 35 97 39 146 10z"/>
<path d="M12000 5803 c-32 -12 -73 -47 -101 -86 -34 -47 -35 -53 -9 -67 17 -9
23 -5 45 28 33 50 75 74 131 74 52 0 87 -20 115 -65 16 -26 19 -44 16 -93 -6
-78 -31 -125 -147 -274 -50 -63 -113 -144 -140 -179 -33 -43 -50 -74 -50 -93
l0 -28 205 0 205 0 0 30 0 30 -171 2 -171 3 36 45 c145 182 220 283 247 334
69 129 41 278 -62 331 -27 15 -119 19 -149 8z"/>
<path d="M12525 5794 c-41 -21 -69 -49 -91 -89 -18 -34 -18 -35 1 -49 18 -13
21 -12 38 18 28 48 78 78 132 78 80 0 129 -54 129 -142 0 -97 -58 -150 -161
-150 l-63 0 0 -30 0 -30 80 0 c80 0 81 0 123 -39 41 -39 42 -40 45 -118 3 -69
1 -82 -20 -113 -45 -67 -132 -88 -214 -51 -37 17 -77 55 -86 83 -6 16 -48 -9
-48 -28 0 -8 21 -36 48 -63 49 -49 103 -71 174 -71 44 0 130 41 156 75 24 31
52 114 52 155 0 74 -40 149 -103 193 -17 12 -16 15 15 48 35 38 58 95 58 146
0 39 -26 111 -48 136 -48 53 -155 73 -217 41z"/>
<path d="M2530 5405 l0 -385 40 0 40 0 0 170 0 170 53 0 53 0 83 -157 c46 -87
89 -164 96 -171 7 -8 28 -12 54 -10 l42 3 -44 75 c-24 41 -69 120 -100 175
l-56 100 22 20 c90 81 108 217 41 318 -39 59 -88 77 -216 77 l-108 0 0 -385z
m220 290 c57 -30 78 -120 44 -191 -21 -45 -39 -54 -119 -59 l-65 -4 0 135 0
134 55 0 c31 0 69 -7 85 -15z"/>
<path d="M3140 5405 l0 -385 165 0 165 0 0 40 0 39 -127 3 -128 3 -3 133 -3
132 111 0 110 0 0 40 0 39 -107 3 -108 3 0 125 0 125 128 3 127 3 0 39 0 40
-165 0 -165 0 0 -385z"/>
<path d="M3670 5405 l0 -385 40 0 40 0 0 322 c0 278 2 320 14 303 7 -11 69
-119 136 -240 67 -121 143 -257 168 -302 l47 -83 53 0 52 0 0 385 0 385 -40 0
-40 0 -2 -322 -3 -322 -64 114 c-35 63 -77 140 -94 170 -16 30 -58 105 -92
165 -34 61 -72 129 -84 153 -21 42 -22 42 -76 42 l-55 0 0 -385z"/>
<path d="M4450 5405 l0 -385 40 0 40 0 2 322 3 323 54 -95 c30 -52 68 -120 84
-150 17 -30 41 -73 53 -95 13 -22 56 -100 96 -172 l72 -133 53 0 53 0 0 385 0
385 -40 0 -40 0 -2 -322 -3 -323 -51 95 c-28 52 -81 149 -119 215 -37 66 -94
168 -127 228 l-59 107 -55 0 -54 0 0 -385z"/>
<path d="M5237 5783 c-4 -3 -7 -177 -7 -385 l0 -378 170 0 170 0 0 40 0 39
-127 3 -128 3 -3 133 -3 132 111 0 110 0 0 40 0 39 -107 3 -108 3 -3 128 -3
127 131 0 130 0 0 40 0 40 -163 0 c-90 0 -167 -3 -170 -7z"/>
<path d="M7700 5765 l0 -25 180 0 c145 0 180 -3 180 -14 0 -12 -47 -111 -268
-568 -34 -70 -62 -129 -62 -132 0 -3 13 -6 29 -6 25 0 31 7 49 48 19 44 47
104 238 501 47 97 74 166 74 187 l0 34 -210 0 -210 0 0 -25z"/>
<path d="M6840 5636 c0 -21 16 -33 108 -82 249 -132 299 -161 292 -167 -3 -2
-72 -39 -155 -82 -215 -112 -245 -132 -245 -161 0 -13 3 -24 8 -24 4 0 52 26
107 58 55 32 147 82 205 111 130 66 132 68 128 105 -3 26 -14 36 -88 79 -100
58 -344 187 -353 187 -4 0 -7 -11 -7 -24z"/>
<path d="M8658 5590 c-36 -11 -85 -47 -99 -72 -9 -16 -7 -24 5 -36 14 -15 19
-13 51 18 30 29 43 34 93 38 54 4 62 2 91 -24 25 -23 34 -42 42 -92 6 -35 9
-66 6 -69 -4 -3 -48 -14 -99 -24 -51 -11 -105 -24 -119 -30 -67 -27 -109 -115
-89 -186 19 -70 62 -103 133 -103 57 0 103 18 136 54 28 30 43 33 40 9 -4 -40
2 -53 22 -53 20 0 20 3 17 233 -3 222 -4 234 -26 269 -39 62 -126 92 -204 68z
m190 -361 c-8 -100 -53 -155 -136 -166 -59 -8 -90 3 -112 40 -24 38 -25 59 -5
101 20 42 42 54 139 76 127 29 120 32 114 -51z"/>
<path d="M9724 5576 c-17 -7 -43 -29 -57 -47 l-27 -34 0 43 c0 38 -2 42 -25
42 l-25 0 0 -280 0 -280 25 0 25 0 0 203 0 204 30 42 c33 46 63 61 116 61 33
0 35 2 32 28 -2 22 -8 27 -33 29 -16 2 -44 -3 -61 -11z"/>
<path d="M9020 5574 c0 -4 41 -130 91 -280 l91 -274 34 0 33 0 90 274 c50 150
91 276 91 280 0 3 -11 6 -24 6 -23 0 -29 -15 -103 -241 -44 -132 -83 -240 -88
-240 -5 0 -44 108 -87 240 -75 227 -80 241 -104 241 -13 0 -24 -3 -24 -6z"/>
<path d="M9970 5300 l0 -280 25 0 25 0 0 280 0 280 -25 0 -25 0 0 -280z"/>
<path d="M6510 5395 l0 -25 120 0 120 0 0 25 0 25 -120 0 -120 0 0 -25z"/>
<path d="M7175 1300 c3 -5 8 -10 11 -10 2 0 4 5 4 10 0 6 -5 10 -11 10 -5 0
-7 -4 -4 -10z"/>
<path d="M5930 13960 c-13 -8 -12 -10 3 -10 9 0 17 5 17 10 0 12 -1 12 -20 0z"/>
</g>
</svg>
